\relax 
\citation{cheng1995}
\providecommand \oddpage@label [2]{}
\@writefile{toc}{\contentsline {section}{\numberline {1}\hskip -1em.\nobreakspace  {}Introduction}{1}\protected@file@percent }
\@writefile{toc}{\contentsline {subsection}{\numberline {1.1}\hskip -1em.\nobreakspace  {}Kernels}{1}\protected@file@percent }
\newlabel{def:def1}{{1}{1}}
\newlabel{def:def1@cref}{{[definition][1][]1}{[1][1][]1}}
\@writefile{toc}{\contentsline {subsection}{\numberline {1.2}\hskip -1em.\nobreakspace  {}Mean shift procedure}{1}\protected@file@percent }
\newlabel{sec:sec12}{{1.2}{1}}
\newlabel{sec:sec12@cref}{{[subsection][2][1]1.2}{[1][1][]1}}
\newlabel{def:def2}{{2}{1}}
\newlabel{def:def2@cref}{{[definition][2][]2}{[1][1][]1}}
\@writefile{lof}{\contentsline {figure}{\numberline {1}{\ignorespaces Visualization of generated values (left) and their classification using mean shift clustering (right).\relax }}{2}\protected@file@percent }
\providecommand*\caption@xref[2]{\@setref\relax\@undefined{#1}}
\newlabel{fig:fig1}{{1}{2}}
\newlabel{fig:fig1@cref}{{[figure][1][]1}{[1][1][]2}}
\@writefile{toc}{\contentsline {section}{\numberline {2}\hskip -1em.\nobreakspace  {}Mean shift clustering}{2}\protected@file@percent }
\newlabel{sec:sec2}{{2}{2}}
\newlabel{sec:sec2@cref}{{[section][2][]2}{[1][2][]2}}
\@writefile{loa}{\contentsline {algorithm}{\numberline {1}{\ignorespaces meanShiftProcedure\relax }}{2}\protected@file@percent }
\newlabel{alg:alg1}{{1}{2}}
\newlabel{alg:alg1@cref}{{[algorithm][1][]1}{[1][2][]2}}
\@writefile{loa}{\contentsline {algorithm}{\numberline {2}{\ignorespaces meanShift\relax }}{2}\protected@file@percent }
\newlabel{alg:alg2}{{2}{2}}
\newlabel{alg:alg2@cref}{{[algorithm][2][]2}{[1][2][]2}}
\@writefile{toc}{\contentsline {subsection}{\numberline {2.1}\hskip -1em.\nobreakspace  {}Parallel mean shift clustering}{2}\protected@file@percent }
\@writefile{loa}{\contentsline {algorithm}{\numberline {3}{\ignorespaces parallelMeanShiftProcedure\relax }}{2}\protected@file@percent }
\newlabel{alg:alg3}{{3}{2}}
\newlabel{alg:alg3@cref}{{[algorithm][3][]3}{[1][2][]2}}
\@writefile{toc}{\contentsline {section}{\numberline {3}\hskip -1em.\nobreakspace  {}Results}{3}\protected@file@percent }
\newlabel{sec:sec3}{{3}{3}}
\newlabel{sec:sec3@cref}{{[section][3][]3}{[1][3][]3}}
\@writefile{lot}{\contentsline {table}{\numberline {1}{\ignorespaces Runtimes of sequential vs parallel executions (static scheduling).\relax }}{3}\protected@file@percent }
\newlabel{tab:tab1}{{1}{3}}
\newlabel{tab:tab1@cref}{{[table][1][]1}{[1][3][]3}}
\@writefile{lot}{\contentsline {table}{\numberline {2}{\ignorespaces Runtimes of sequential vs parallel executions (dynamic scheduling with 1 thread per block).\relax }}{3}\protected@file@percent }
\newlabel{tab:tab2}{{2}{3}}
\newlabel{tab:tab2@cref}{{[table][2][]2}{[1][3][]3}}
\@writefile{lof}{\contentsline {figure}{\numberline {2}{\ignorespaces Trends of average speedups in function of dataset sizes and scheduling types.\relax }}{3}\protected@file@percent }
\newlabel{fig:fig2}{{2}{3}}
\newlabel{fig:fig2@cref}{{[figure][2][]2}{[1][3][]3}}
\@writefile{lof}{\contentsline {figure}{\numberline {3}{\ignorespaces Trend of average speedup in function of the number of cores.\relax }}{3}\protected@file@percent }
\newlabel{fig:fig3}{{3}{3}}
\newlabel{fig:fig3@cref}{{[figure][3][]3}{[1][3][]3}}
\@writefile{toc}{\contentsline {section}{\numberline {4}\hskip -1em.\nobreakspace  {}Conclusions}{3}\protected@file@percent }
\bibstyle{ieee}
\bibcite{cheng1995}{1}
