3000,9186.11,1703.24,5.39331
3000,9212.03,1712.98,5.37778
3000,9185.28,1711.83,5.36576
3000,9196.21,1716.91,5.35626
3000,9202.06,1722.73,5.34156
3000,9188.97,1720.18,5.34188
3000,9196.99,1737.55,5.29309
3000,9199.33,1730.73,5.31528
3000,9212.26,1723.53,5.345
3000,9197.19,1734,5.30404
